[
  {"question": "The instructions that a judge gives to the jury before the jury begins deliberations is known as the:", "answer":	"judge’s charge", "choices": ["verdict", "closing argument", "summation"], "type": "Legal Terms - Sentence Completion"},
  {"question": "A monetary amount for conditional pretrial release from custody is known as:", "answer":	"bail", "choices": ["lien", "surcharge", "fine"], "type": "Legal Terms - Sentence Completion"},
  {"question": "To oust someone from a dwelling through the legal process is to:", "answer":	"dispossess", "choices": ["disassemble", "disenfranchise", "disintegrate"], "type": "Legal Terms - Sentence Completion"},
  {"question": "An admission of guilt in exchange for a specific sentence is:", "answer":	"a plea bargain", "choices": ["ipso facto", "a hung jury", "a no lo contendere"], "type": "Legal Terms - Sentence Completion"},
  {"question": "A ‘retainer’ is an agreement between:", "answer":	"a client and an attorney", "choices": ["two or more jurors", "a juror and a judge", "two or more attorneys"], "type": "Legal Terms - Sentence Completion"},
  {"question": "A conviction happens when:", "answer":	"the jury returns a guilty verdict", "choices": ["the prosecutor’s evidence is overwhelming", "the defense has an ironclad alibi", "all the witnesses are credible"], "type": "Legal Terms - Sentence Completion"},
  {"question": "Legal assistance which is free of charge is:", "answer":	"pro bono", "choices": ["non pro tunc", "pro se", "de novo"], "type": "Legal Terms - Sentence Completion"},
  {"question": "Offenders who repeatedly commit the same crimes are involved in:", "answer":	"recidivism", "choices": ["restitution", "res ipsa loquitur", "reciprocity"], "type": "Legal Terms - Sentence Completion"},
  {"question": "A judgment awarding a plaintiff relief sought in the complaint because the defendant failed to appear in court is known as a:", "answer":	"default judgment", "choices": ["judgment by comparison", "judgment of dismissal", "judgment of discontinuance"], "type": "Legal Terms - Sentence Completion"},
  {"question": "A peremptory challenge allows an attorney to dismiss a potential juror:", "answer":	"without cause or giving reason", "choices": ["when everyone agrees in chambers", "with cause and giving reason", "after a hearing is held"], "type": "Legal Terms - Sentence Completion"}
]
