[{"question":	"A court interpreter who is interpreting for a witness and realizes that an error was made earlier in interpretation of testimony should:",	"answer":	"Immediately inform the court of the error",	"choices":	["Wait until the next break and discuss the problem with the defense counsel", "Wait until the next break and inform the judge of the problem in chambers", "Take no action but make sure the mistake does not happen again"],	"type":	"Ethics"},
{"question":	"The burden of proof in a criminal case refers to the fact that",	"answer":	"A prosecutor must prove the case against the defendant beyond a reasonable doubt",	"choices":	["The defendant may take the stand and testify as he/she wishes", "Witnesses must testify under oath", "Police may not search a residence without a warrant"],	"type":	"Legal Terms"},
{"question":	"If a witness uses a term an interpreter is unfamiliar with, the interpreter should:",	"answer":	"Inform the Court of the problem and ask permission to consult a dictionary or inquire of the witness",	"choices":	["Make an educated guess based on the context", "Ask the witness what was meant and inform the court", "Skip the unknown term and continue interpreting"],	"type":	"Ethics"},
{"question":	"A court interpreter has an obligation to:",	"answer":	"Interpret everything just as it is said, without explaining or simplifying",	"choices":	["Make sure the defendant understands everything that is going on in the trial", "Inform the court if an attorney's question is likely to be too difficult for the defendant to understand", "Explain complex legal concepts to the defendant"],	"type":	"Ethics"},
{"question":	"When an attorney cites points and authorities, the attorney:",	"answer":	"Tells the court what precedent decisions it must follow in deciding the case",	"choices":	["Informs the court of the expert witnesses who will be testifying in the case", "Challenges the credibility of prosecution witnesses", "Explains to the defendant the charges that have been filed against him/her"],	"type":	"Legal Terms"},
{"question":	"If counsel misstates the facts, the interpreter should:",	"answer":	"Interpret the misstatement",	"choices":	["Correct the attorney", "Tell the judge", "Tell the defendant"],	"type":	"Ethics"},
{"question":	"An adjudicatory hearing is",	"answer":	"A term used for a portion of a juvenile proceeding",	"choices":	["A term used for a settlement hearing between parties", "A term used for an allocation dispute", "A term used for division of property adjudication"],	"type":	"Legal Terms"},
{"question":	"A voir dire interrogation is made",	"answer":	"To determine qualifications or competency",	"choices":	["To hear and see prosecution witnesses", "Prior to the field sobriety test", "To determine whether a witness is lying"],	"type":	"Legal Terms"},
{"question":	"To impanel a jury is:",	"answer":	"To choose a jury",	"choices":	["To sequester a jury", "To swear in a jury", "To disqualify an entire jury"],	"type":	"Legal Terms"},
{"question":	"Nolo contendere means:",	"answer":	"\"I will not contest the charges\"",	"choices":	["\"I won't answer\"", "\"I won't do it again\"", "\"I cannot understand (the proceedings)\""],	"type":	"Legal Terms"},
{"question":	"To impeach a witness is",	"answer":	"To discredit a witness",	"choices":	["To excuse a witness", "To badger a witness", "To qualify a witness"],	"type":	"Legal Terms"},
{"question":	"A cursory search is:",	"answer":	"A superficial search",	"choices":	["A house search", "An area search", "A detailed search"],	"type":	"Legal Terms"},
{"question":	"A mule is:",	"answer":	"A person who transports narcotics for others",	"choices":	["A stubborn person who will not confess", "A person who suffers the severest penalty for drug violations", "A powerful narcotic with a strong kick or effect"],	"type":	"Slangs"},
{"question":	"A pop is:",	"answer":	"A narcotic injection",	"choices":	["A kilo of marijuana", "A \"noseful\" of cocaine", "A piece of narcotic paraphernalia"],	"type":	"Slangs"},
{"question":	"A defendant who represents himself/herself is designated:",	"answer":	"Pro se",	"choices":	["Improper", "In camera", "In loco parentis"],	"type":	"Legal Terms"},
{"question":	"Counts in an indictment or information are:",	"answer":	"The allegations of distinct separate offenses",	"choices":	["The number of victims in a case", "The number of potential witnesses in a matter", "The counter-charges involved in the case"],	"type":	"Legal Terms"},
{"question":	"At a preliminary hearing the judge may not:",	"answer":	"Determine the guilt or innocence of the defendant",	"choices":	["Dismiss the case", "Release the defendant if the evidence is insufficient", "Release the defendant if the evidence was illegally obtained"],	"type":	"Legal Terms"},
{"question":	"Probable cause is:",	"answer":	"A requisite element of a valid search and seizure or arrest",	"choices":	["A feasible excuse or reason for committing a crime", "A precedent source of case law to support an argument", "A fact, not in evidence, from which another fact, in evidence can be derived"],	"type":	"Legal Terms"},
{"question":	"A spoken language interpreter shall have a notepad and pencil:",	"answer":	"Always handy",	"choices":	["Never at the witness stand", "Only for use during consecutive interpreting", "Never in sight"],	"type":	"Ethics"},
{"question":	"An interpreter may accept payment from a defendant in a criminal case:",	"answer":	"Under no circumstances",	"choices":	["When the interpreter works past 5:00 p.m.", "Only if the defendant wins the case", "For extra interpreting, such as assisting an attorney to communicate with the defendant's family"],	"type":	"Ethics"},
{"question":	"To become familiar with the case, the interpreter must:",	"answer":	"Request and review the case file",	"choices":	["Take time to interview the defendant personally", "Obtain the points of view of both the defense and prosecuting attorney", "Talk with family members"],	"type":	"Ethics"},
{"question":	"At an arraignment, the defendant is:",	"answer":	"Informed of the charges against him or her and asked to enter a plea",	"choices":	["Confronted with the witnesses testifying against the defendant", "Interviewed about the facts of the case", "Sentenced"],	"type":	"Legal Terms"},
{"question":	"A court interpreter approached by a newspaper reporter who wishes to discuss the case should:",	"answer":	"Explain to the reporter that the interpreter is not allowed to discuss a case",	"choices":	["Answer any questions the reporter has", "Refuse to talk to the reporter under any circumstances", "Inform the reporter that there will be a fee for interviews regarding the case because such work goes beyond that which the interpreter is normally required to do"],	"type":	"Ethics"},
{"question":	"Which of the following skill is LEAST important in interpreting?",	"answer":	"Native accent",	"choices":	["Memory", "Bilingualism", "Intelligence"],	"type":	"Ethics"},
{"question":	"The mandatory method for interpreting at the witness stand is:",	"answer":	"Consecutive",	"choices":	["Simultaneous", "Summary", "Paraphrase"],	"type":	"Ethics"},
{"question":	"A source language means:",	"answer":	"A language from which one interprets",	"choices":	["A native language", "An official language used in the courts", "A dead language from which a modern language is derived"],	"type":	"Legal Terms"},
{"question":	"If an attorney is speaking too fast or too softly, the interpreter must:",	"answer":	"Immediately inform the court",	"choices":	["Continue to interpret the best he/she can so as not to interrupt the proceedings", "Raise his/her hand to get the speaker's attention", "Stop interpreting"],	"type":	"Ethics"},
{"question":	"Paraphrase or summary interpretation may be used:",	"answer":	"At no time",	"choices":	["When other interpreting modes are impossible", "Usually during consultation in chambers", "In lock-up or jail interviews only"],	"type":	"Ethics"},
{"question":	"If the defendant asks what the consequences are for pleading guilty, the interpreter must:",	"answer":	"Refer the question to the attorney",	"choices":	["Answer the question only if the interpreter knows the answer", "Immediately refer to the Code of Pennsylvania", "Inform the defendant that he/she will find out when the time comes"],	"type":	"Ethics"},
{"question":	"The interpreter is free to speak with the member of the jury",	"answer":	"After the jury has been dismissed",	"choices":	["When the jury has been impaneled", "Only if the juror questions the interpretation", "When the court is not in session"],	"type":	"Ethics"},
{"question":	"An interpreter may give legal advice:",	"answer":	"Never under an circumstances",	"choices":	["In a limited way, under certain circumstances", "When the defendant explicitly asks for help", "When the defendant is indigent"],	"type":	"Ethics"},
{"question":	"Angel Dust is:",	"answer":	"PCP",	"choices":	["Cocaine", "Heroin", "Pulverized marijuana"],	"type":	"Slangs"},
{"question":	"Smack is:",	"answer":	"Heroin",	"choices":	["Cocaine", "LSD", "Opium"],	"type":	"Slangs"},
{"question":	"A lid is",	"answer":	"A measurement for buying and selling marijuana",	"choices":	["A peruvian strain of cocaine", "A narcotic informant", "A gag used to quiet unruly prisoners"],	"type":	"Slangs"},
{"question":	"To waive means",	"answer":	"To relinquish",	"choices":	["To prove", "To justify", "To use"],	"type":	"Vocabulary"},
{"question":	"A rebuttal is",	"answer":	"A refutation",	"choices":	["A rebuke", "A rebuff", "A rescission"],	"type":	"Vocabulary"},
{"question":	"To remand a defendant is",	"answer":	"To send back into custody",	"choices":	["To interrogate", "To release on certain conditions", "To strip-search"],	"type":	"Legal Terms"},
{"question":	"To serve a subpoena means",	"answer":	"To deliver a subpoena",	"choices":	["To comply with a subpoena", "To accept a subpoena", "To prepare a subpoena for service"],	"type":	"Legal Terms"},
{"question":	"The defense rests means",	"answer":	"The defense has finished presenting its case",	"choices":	["The defense cannot proceed for lack of witnesses", "The defense moves for a brief recess", "The defense has finished cross-examination of the prosecution witnesses"],	"type":	"Legal Terms"},
{"question":	"To sustain an objection means",	"answer":	"To uphold an objection",	"choices":	["To make an objection", "To suffer an objection", "To withdraw an objection"],	"type":	"Legal Terms"},
{"question":	"If an interpreter is sure that the person for whom he/she is interpreting is lying, the interpreter should",	"answer":	"Interpret what is said",	"choices":	["Inform the attorney", "Let the judge know", "Tell the person not to lie"],	"type":	"Ethics"},
{"question":	"An attorney calls her client a \"son of a bitch\". The interpreter should",	"answer":	"Interpret everything using the closest equivalents in the target language",	"choices":	["Clean up the language, since the client may be offended", "Report the inappropriate behavior to the judge", "Tell the attorney that it is against your religion to use such language"],	"type":	"Ethics"},
{"question":	"A hung jury is one that",	"answer":	"Cannot reach a verdict",	"choices":	["Has no alternative jurors", "Is missing a juror during deliberations", "Is dismissed for unethical behavior"],	"type":	"Legal Terms"},
{"question":	"What is considered the most serious type of crime?",	"answer":	"Felony",	"choices":	["Misdemeanor", "Gross misdemeanor", "Infraction"],	"type":	"Legal Terms"},
{"question":	"Which of the following would be heard in civil court?",	"answer":	"Divorce",	"choices":	["Drunk driving", "Petty theft", "Possession of cocaine"],	"type":	"Legal Terms"},
{"question":	"It was done <u>pursuant</u> to the proceedings of the court.",	"answer":	"In accordance with",	"choices":	["in addition to", "in conjunction with", "in spite of"],	"type":	"Vocabulary"}
]
