[
  {"english_term":	"recidivism",
  "term":	"reincidencia",
  "definition":	"El violar continua y habitualmente la ley después de haber sido condenado de delitos previos."},
{"english_term":	"plaintiff",
  "term":	"demandante",
  "definition":	"La persona o la compañía que presenta una demanda o litigio."},
{"english_term":	"restitution",
  "term":	"restitución",
  "definition":	"Regresar algo a su dueño. O, dar al dueño algo con el mismo valor, como pagar para el arreglo de su propiedad."},
{"english_term":	"fine",
  "term":	"multa",
  "definition":	"El dinero que la persona debe pagar como castigo por haber hecho algo ilegal o por no hacer lo que debía de hacer."},
{"english_term":	"bail",
  "term":	"fianza",
  "definition":	"Un depósito de seguridad (usualmente dinero) entregado para conseguir la libertad de un acusado o testigo en custodia y para asegurarse que se presente en un tribunal cuando así se lo ordene."},
{"english_term":	"pro bono",
  "term":	"pro bono",
  "definition":	"Trabajo legal hecho gratuitamente. Del latín y significa \"para el bienestar del público.\""},
{"english_term":	"verdict",
  "term":	"veredicto",
  "definition":	"La decisión final del jurado o del juez."},
{"english_term":	"default judgement",
  "term":	"fallo por incomparecencia",
  "definition":	"Una decisión del tribunal a favor del demandante cuando el acusado no contesta ni comparece ante el tribunal cuando debe hacerlo."},
{"english_term":	"plea bargain",
  "term":	"convenio declaratorio",
  "definition":	"Un acuerdo entre el fiscal y el acusado. Permite que el acusado se declare culpable a un cargo menos grave, si el tribunal lo aprueba."},
{"english_term":	"closing argument",
  "term":	"argumento final",
  "definition":	"Los argumentos finales del abogado al juez o al jurado después de que todas las partes han concluido la presentación de evidencia."},
{"english_term":	"hung jury",
  "term":	"jurado con veredicto suspendido",
  "definition":	"Un jurado que es incapaz de ponerse de acuerdo en el veridicto después de un periodo conveniente de deliberación."},
{"english_term":	"lien",
  "term":	"embargo preventivo",
  "definition":	"El derecho de mantener la propiedad del deudor para prevenir que sea vendida o transferida hasta que el deudor pague lo que debe."},
{"english_term":	"pro se",
  "term":	"por sí mismo",
  "definition":	"Persona que presenta sus propios casos en el tribunal sin abogados"},
{"english_term":	"res ipsa loquitur",
  "term":	"res ipsa loquitur",
  "definition":	"Del Latín y significa \"una cosa que habla por sí misma.\" En la ley de agravio, es la doctrina que sostiene que un demandado es culpable de negligencia incluso sin demostrar que era negligente."},
{"english_term":	"de novo",
  "term":	"de novo",
  "definition":	"Empezar un caso de nuevo como si no se hubiese tratado antes. En el latín, Novo significa \"nuevo\"."},
{"english_term":	"nunc pro tunc",
  "term":	"nunc pro tunc",
  "definition":	"Cuando una orden del tribunal se publica en una fecha, pero es efectiva desde una fecha en el pasado. Del latín y significa “ahora para entonces.”"}
]
