[
  {"term": "accounting", "definition": "1. A report listing all of the debt and assets of a person or thing (estate, company, corporation).\n2. Surrogate’s Court: A report of the money spent, given out, and earned including any fees and unpaid bills. This includes support papers, like a will, receipts, bills, and taxes.\n3. Surrogate’s Court: The name of the paper filed to show what money was spent or given out or earned in an estate, administration, trust, or guardianship. Must be filed by a fiduciary."},
  {"term": "administration", "definition": "1.Management (officials) at the highest level of government or business. \n2. Surrogate’s Court: The proceeding that handles the estate of a person that died with no will (intestate)."},
  {"term": "ancillary proceeding", "definition": "1. A case that grows out of another case. It is filed in order to help in the original case, or to help change something. \n2. Surrogate’s Court: A case asking the court to appoint someone to manage the New York real or personal property of an out-of-state or foreign estate."},
  {"term": "beneficiary", "definition": "1. A person who can receive something because of a legal arrangement or document. \n2. Surrogate’s Court: Any person who can share in an estate."},
  {"term": "bequest", "definition": "A gift in a will of money or other property."},
  {"term": "commingle", "definition": "When someone mixes properties or money intended for different purposes into a common fund or bank account."},
  {"term": "devise", "definition": "A gift or transfer by a will of property."},
  {"term": "devisee", "definition": "A person receiving property from a will."},
  {"term": "eminent domain", "definition": "The right of the state to take private property, without the owner’s agreement, for public use after giving fair payment to the owner."},
  {"term": "escheat", "definition": "The right of the State to take property  of someone who dies when there is no one to inherit it."},
  {"term": "estate", "definition": "All the property of an adult, a child, a trust or  someone who has died."},
  {"term": "executor", "definition": "A person named in a will and appointed by the court to carry out the will’s instructions and handle financial matters."},
  {"term": "execution of judgment", "definition": "Legal process of enforcing a judgment, usually by taking and/or selling property of the person who owes."},
  {"term": "fiduciary", "definition": "1. Adjective: A high standard of care. \n2.  Noun: A person who must use a high standard of care when he or she manages another person's money or property, like a trustee."},
  {"term": "heir", "definition": "A person that inherits or receives money or property from someone who has died."},
  {"term": "impound", "definition": "To seize and hold in the custody of the law. Generally used with personal property, not people."},
  {"term": "in rem", "definition": "Latin, \"Against a thing.\"  Having to do with the right or title to property."},
  {"term": "inter vivos trust", "definition": "Latin, \"  \"Between the living.\"  A trust made by a person while he or she is alive."},
  {"term": "intestate", "definition": "To die without making a will."},
  {"term": "inventory", "definition": "A detailed list of property."},
  {"term": "judicial settlement", "definition": "In Surrogate’s Court. A court proceeding where the judge reviews and approves the account filed by the fiduciary (responsible manager)  of an estate."},
  {"term": "legatee", "definition": "Any person supposed to receive personal property under a will."},
  {"term": "Letters", "definition": "Document made by the court appointing a person or corporation as a fiduciary."},
  {"term": "Letters of Conservatorship", "definition": "A court paper that allow a person called the conservator to act for another person."},
  {"term": "oath", "definition": "When a person swears or affirms that what he or she is saying is true.  In Surrogate’s Court an oath and designation allows the Chief Clerk to receive an order from the Surrogate."},
  {"term": "parcel", "definition": "1. A package.\n2. A plot of land.\n3. To divide and give out something."},
  {"term": "per capita", "definition": "A way to give out the property of an estate so that each beneficiary gets a equal share."},
  {"term": "per stirpes", "definition": "A way to give out the property of an estate when the beneficiary has died and his or her descendants take the share."},
  {"term": "persons interested", "definition": "Any person or entity with the right to a share in an estate. For example, a husband or wife not named in a will."},
  {"term": "possession", "definition": "when a person has control of a place or a thing; the right to occupy a premises"},
  {"term": "possessory judgment", "definition": "An order from the court giving control of an item, place or space."},
  {"term": "preliminary executor", "definition": "A person who acts as an estate’s administrator before the will is probated."},
  {"term": "probate", "definition": "A court case that decides if a will is genuine (real). This case is started after a person who leaves a will dies and lets an executor manage the estate."},
  {"term": "probate court", "definition": "The department of each county's Surrogate’s Court that deals with probate, conservatorships, guardianships and the estates of people that have died."},
  {"term": "proponent", "definition": "The person who starts a probate proceeding."},
  {"term": "poor person application", "definition": "When a person asks the court to be allowed to not pay the court fees because he or she does not have the money. This is also called a fee waiver."},
  {"term": "poor person order", "definition": "The order stopping all costs and fees in a case for a poor person."},
  {"term": "poor person's relief", "definition": "when a party to a lawsuit cannot afford the costs of a lawsuit, the Court may permit that party to proceed without being required to pay for court costs"},
  {"term": "quiet enjoyment", "definition": "The right to use a place without interference."},
  {"term": "quiet title", "definition": "A case where court decides who owns (or has title to) a property. To \"quiet title\" is to declare that a certain person is the legal owner of the real property in dispute."},
  {"term": "quitclaim deed", "definition": "Deed for real property which does not guarantee full ownership."},
  {"term": "Real Estate Owned (REO)", "definition": "When the lender (like a bank) takes the property after it does not sell at auction."},
  {"term": "remainderman", "definition": "The person who gets what is left at the end of the distribution of an estate, or at the end of a life tenancy, or the end of a trust."},
  {"term": "right of redemption period", "definition": "The time when a borrower can stop foreclosure by selling the property, or paying off the loan, etc. In New York State this period ends when the property is sold at auction."},
  {"term": "short sale", "definition": "When the lender agrees to let the borrower sell the property for less than is owed on the loan. Money from the sale goes to the lender and he or she says the loan is paid off. This normally happens when the property is worth less than then the amount still owed on the loan."},
  {"term": "small estate proceeding", "definition": "A probate case for an estate worth less than an amount specified by law."},
  {"term": "Surrogate’s Court", "definition": "The court that has power over the affairs of someone who has died, guardianships, and oversees fiduciaries."},
  {"term": "temporary administrator", "definition": "Person appointed to manage, but not distribute, the assets of an estate until a permanent administrator is appointed."},
  {"term": "testate", "definition": "Having made a will or having died leaving a valid will."},
  {"term": "testator", "definition": "A person that has made a will or that has died leaving a legal will."},
  {"term": "trust fund", "definition": "Money, stocks, bonds, or securities held under the control of someone for  the use and benefit of another person."},
  {"term": "trustee", "definition": "1. The person that has custody of or control over money or things for the of another.\n2. Bankruptcy Court: A person who represents the interests of the bankruptcy estate and the unsecured creditors.\n3. Surrogate’s Court: A person (a fiduciary) named in a will or trust to be in control. The trustee's responsibilities may include selling the property of the estate, making distributions, and bringing cases to recover property."},
  {"term": "voluntary administrator", "definition": "A person  allowed to settle a small estate."},
  {"term": "will", "definition": "A legal paper that lists a person's wishes about what will happen to his or her personal property after death."},
  {"term": "zoning", "definition": "Laws that control the type and use of lands and buildings."}
]
